<svg width="76" height="77" viewBox="0 0 76 77" fill="none" xmlns="http://www.w3.org/2000/svg">
<path d="M47.9998 51.5H47.8298C28.1798 50.37 25.3898 33.79 24.9998 28.73C24.9683 28.3366 25.0148 27.9408 25.1366 27.5654C25.2584 27.19 25.4531 26.8423 25.7095 26.5423C25.9659 26.2422 26.2789 25.9957 26.6308 25.8168C26.9826 25.638 27.3663 25.5303 27.7598 25.5H33.2698C33.6703 25.4996 34.0618 25.6195 34.3934 25.8442C34.725 26.0688 34.9816 26.3879 35.1298 26.76L36.6498 30.5C36.7961 30.8635 36.8324 31.2621 36.7542 31.6461C36.676 32.0301 36.4867 32.3827 36.2098 32.66L34.0798 34.81C34.4125 36.7007 35.3179 38.4437 36.6737 39.803C38.0294 41.1622 39.7699 42.0723 41.6598 42.41L43.8298 40.26C44.1113 39.9862 44.4671 39.8013 44.853 39.7283C45.2389 39.6554 45.6378 39.6977 45.9998 39.85L49.7698 41.36C50.1363 41.5129 50.449 41.7714 50.668 42.1027C50.8871 42.4339 51.0026 42.8229 50.9998 43.22V48.5C50.9998 49.2956 50.6837 50.0587 50.1211 50.6213C49.5585 51.1839 48.7954 51.5 47.9998 51.5ZM27.9998 27.5C27.7345 27.5 27.4802 27.6054 27.2927 27.7929C27.1051 27.9804 26.9998 28.2348 26.9998 28.5V28.58C27.4598 34.5 30.4098 48.5 47.9398 49.5C48.0711 49.5081 48.2028 49.4902 48.3273 49.4473C48.4517 49.4045 48.5665 49.3374 48.6649 49.2501C48.7634 49.1628 48.8437 49.0568 48.9011 48.9384C48.9586 48.82 48.9921 48.6914 48.9998 48.56V43.22L45.2298 41.71L42.3598 44.56L41.8798 44.5C33.1798 43.41 31.9998 34.71 31.9998 34.62L31.9398 34.14L34.7798 31.27L33.2798 27.5H27.9998Z" fill="#4E3265"/>
<circle opacity="0.3" cx="38" cy="38.5" r="38" fill="#4E3265"/>
<circle opacity="0.3" cx="38" cy="38.5" r="28" fill="#4E3265"/>
</svg>
